{
    "AZPlans": [{
        "PlanName": "Platinum Compass Plus 250",
        "MetallicLevel": "Platinum",
        "PlanNameShort": "Platinum 250",
        "PlanType": "PPO",
        "DedInInd": " $250",
        "DedInIndNote": "",
        "DedInFam": " $500 ",
        "DedInFamNote": " (per person) ",
        "DedOutInd": " $500 ",
        "DedOutFam": " $1,000 ",
        "DedOutFamNote": " (per person) ",
        "ScriptDed": "Yes",
        "ScriptDedInd": " $250 ",
        "ScriptDedFam": " $250 ",
        "ScriptDedPP": " (per person) ",
        "OthDedFam": null,
        "OthDedInd": "There are no other deductibles",
        "OOPInInd": " $1,500 ",
        "OOPInIndNote": "",
        "OOPInFam": " $3,000 ",
        "OOPOutInd": "None",
        "OOPOutFam": "None",
        "NotOOP": "Premiums, co-pay, co-insurance and health care this plan doesn't cover",
        "AnnualLimit": "No",
        "NetworkProviders": "Yes",
        "Referral": "No",
        "NotCovered": "Yes",
        "Tier1": "$5 ",
        "Tier1Type": "co-pay",
        "Tier1Note": null,
        "Tier2": "$35 ",
        "Tier2Type": "co-pay",
        "Tier2Note": null,
        "Tier3": "20%",
        "Tier3Type": "co-insurance",
        "Tier3Note": "(with a $75 copay min)",
        "Tier4": "30%",
        "Tier4Type": "co-insurance",
        "Tier4Note": "(with a $250 copay min)",
        "SBCURL": "/unitedHealthcare-platinum-compass-plus-250.pdf",
        "PlanURL": "/platinum-250.html",
        "HSA": "No"
    }, 
{
        "PlanName": "Platinum Compass Plus 0",
        "MetallicLevel": "Platinum",
        "PlanNameShort": "Platinum 0",
        "PlanType": "PPO",
        "DedInInd": " $0",
        "DedInIndNote": "",
        "DedInFam": " $0 ",
        "DedInFamNote": " (per person) ",
        "DedOutInd": " $0 ",
        "DedOutFam": " $0 ",
        "DedOutFamNote": " (per person) ",
        "ScriptDed": "Yes",
        "ScriptDedInd": " $0 ",
        "ScriptDedFam": " $0 ",
        "ScriptDedPP": " (per person) ",
        "OthDedFam": null,
        "OthDedInd": "There are no other deductibles",
        "OOPInInd": " $0 ",
        "OOPInIndNote": "",
        "OOPInFam": " $0 ",
        "OOPOutInd": "None",
        "OOPOutFam": "None",
        "NotOOP": "Premiums, co-pay, co-insurance and health care this plan doesn't cover",
        "AnnualLimit": "No",
        "NetworkProviders": "Yes",
        "Referral": "No",
        "NotCovered": "Yes",
        "Tier1": "$0 ",
        "Tier1Type": "co-pay",
        "Tier1Note": null,
        "Tier2": "$0 ",
        "Tier2Type": "co-pay",
        "Tier2Note": null,
        "Tier3": "0%",
        "Tier3Type": "co-insurance",
        "Tier3Note": "",
        "Tier4": "0%",
        "Tier4Type": "co-insurance",
        "Tier4Note": "",
        "SBCURL": "/unitedHealthcare-platinum-compass-plus-0.pdf",
        "PlanURL": "/platinum-0.html",
        "HSA": "No"
    },
    {
        "PlanName": "Gold Compass Plus 1250",
        "MetallicLevel": "Gold",
        "PlanNameShort": "Gold 1250",
        "PlanType": "PPO",
        "DedInInd": " $1,250 ",
        "DedInIndNote": "",
        "DedInFam": " $2,500 ",
        "DedInFamNote": " (per person) ",
        "DedOutInd": " $2,500 ",
        "DedOutFam": " $5,000 ",
        "DedOutFamNote": " (per person) ",
        "ScriptDed": "Yes",
        "ScriptDedInd": " $500 ",
        "ScriptDedFam": " $500 ",
        "ScriptDedPP": " (per person) ",
        "OthDedFam": null,
        "OthDedInd": "There are no other deductibles",
        "OOPInInd": " $6,600 ",
        "OOPInIndNote": "",
        "OOPInFam": " $13,200 ",
        "OOPOutInd": "None",
        "OOPOutFam": "None",
        "NotOOP": "Premiums, co-pay, co-insurance and health care this plan doesn't cover",
        "AnnualLimit": "No",
        "NetworkProviders": "Yes",
        "Referral": "No",
        "NotCovered": "Yes",
        "Tier1": "$5 ",
        "Tier1Type": "co-pay",
        "Tier1Note": null,
        "Tier2": "$40 ",
        "Tier2Type": "co-pay",
        "Tier2Note": null,
        "Tier3": "20%",
        "Tier3Type": "co-insurance",
        "Tier3Note": "(with a $80 co-pay min)",
        "Tier4": "30%",
        "Tier4Type": "co-insurance",
        "Tier4Note": "(with a $250 co-pay min)",
        "SBCURL": "/unitedHealthcare-gold-compass-plus-1250.pdf",
        "PlanURL": "/gold-1250.html",
        "HSA": "No"
    },
{
        "PlanName": "Gold Compass Plus 0",
        "MetallicLevel": "Gold",
        "PlanNameShort": "Gold 0",
        "PlanType": "PPO",
        "DedInInd": " $0",
        "DedInIndNote": "",
        "DedInFam": " $0 ",
        "DedInFamNote": " (per person) ",
        "DedOutInd": " $0 ",
        "DedOutFam": " $0 ",
        "DedOutFamNote": " (per person) ",
        "ScriptDed": "Yes",
        "ScriptDedInd": " $0 ",
        "ScriptDedFam": " $0 ",
        "ScriptDedPP": " (per person) ",
        "OthDedFam": null,
        "OthDedInd": "There are no other deductibles",
        "OOPInInd": " $0 ",
        "OOPInIndNote": "",
        "OOPInFam": " $0 ",
        "OOPOutInd": "None",
        "OOPOutFam": "None",
        "NotOOP": "Premiums, co-pay, co-insurance and health care this plan doesn't cover",
        "AnnualLimit": "No",
        "NetworkProviders": "Yes",
        "Referral": "No",
        "NotCovered": "Yes",
        "Tier1": "$0 ",
        "Tier1Type": "co-pay",
        "Tier1Note": null,
        "Tier2": "$0 ",
        "Tier2Type": "co-pay",
        "Tier2Note": null,
        "Tier3": "0%",
        "Tier3Type": "co-insurance",
        "Tier3Note": "",
        "Tier4": "0%",
        "Tier4Type": "co-insurance",
        "Tier4Note": "",
        "SBCURL": "/unitedHealthcare-gold-compass-plus-0.pdf",
        "PlanURL": "/gold-0.html",
        "HSA": "No"
    },
     {
        "PlanName": "Gold Compass Plus 500",
        "MetallicLevel": "Gold",
        "PlanNameShort": "Gold 500",
        "PlanType": "PPO",
        "DedInInd": " $500 ",
        "DedInIndNote": "",
        "DedInFam": " $1,000 ",
        "DedInFamNote": " (per person) ",
        "DedOutInd": " $1,000 ",
        "DedOutFam": " $2,000 ",
        "DedOutFamNote": " (per person) ",
        "ScriptDed": "Yes",
        "ScriptDedInd": " $250 ",
        "ScriptDedFam": " $250 ",
        "ScriptDedPP": " (per person) ",
        "OthDedFam": null,
        "OthDedInd": "There are no other deductibles",
        "OOPInInd": " $6,600 ",
        "OOPInIndNote": "",
        "OOPInFam": " $13,200 ",
        "OOPOutInd": "None",
        "OOPOutFam": "None",
        "NotOOP": "Premiums, co-pay, co-insurance and health care this plan doesn't cover",
        "AnnualLimit": "No",
        "NetworkProviders": "Yes",
        "Referral": "No",
        "NotCovered": "Yes",
        "Tier1": "$5 ",
        "Tier1Type": "co-pay",
        "Tier1Note": null,
        "Tier2": "$40 ",
        "Tier2Type": "co-pay",
        "Tier2Note": null,
        "Tier3": "20%",
        "Tier3Type": "co-insurance",
        "Tier3Note": "(with a $80 copay min)",
        "Tier4": "30%",
        "Tier4Type": "co-insurance",
        "Tier4Note": "(with a $250 copay min)",
        "SBCURL": "/unitedHealthcare-gold-compass-plus-500.pdf",
        "PlanURL": "/gold-500.html",
        "HSA": "No"
    }, {
        "PlanName": "silver Compass Plus 100-1",
        "MetallicLevel": "silver",
        "PlanNameShort": "silver 100-1",
        "PlanType": "PPO",
        "DedInInd": " $100",
        "DedInIndNote": "",
        "DedInFam": " $200 ",
        "DedInFamNote": " (per person) ",
        "DedOutInd": " $4,000 ",
        "DedOutFam": " $8,000 ",
        "DedOutFamNote": " (per person) ",
        "ScriptDed": "Yes",
        "ScriptDedInd": " $100 ",
        "ScriptDedFam": " $100 ",
        "ScriptDedPP": " (per person) ",
        "OthDedFam": null,
        "OthDedInd": "There are no other deductibles",
        "OOPInInd": " $550 ",
        "OOPInIndNote": "",
        "OOPInFam": " $1,100 ",
        "OOPOutInd": "None",
        "OOPOutFam": "None",
        "NotOOP": "Premiums, co-pay, co-insurance and health care this plan doesn't cover",
        "AnnualLimit": "No",
        "NetworkProviders": "Yes",
        "Referral": "No",
        "NotCovered": "Yes",
        "Tier1": "$5 ",
        "Tier1Type": "co-pay",
        "Tier1Note": null,
        "Tier2": "$35 ",
        "Tier2Type": "co-pay",
        "Tier2Note": null,
        "Tier3": "20%",
        "Tier3Type": "co-insurance",
        "Tier3Note": "(with a $75 copay min)",
        "Tier4": "30%",
        "Tier4Type": "co-insurance",
        "Tier4Note": "(with a $250 copay min)",
        "SBCURL": "/unitedHealthcare-silver-compass-plus-100-1.pdf",
        "PlanURL": "/silver-100-1.html",
        "HSA": "No"
    }, {
        "PlanName": "silver Compass Plus 100-2",
        "MetallicLevel": "silver",
        "PlanNameShort": "silver 100-2",
        "PlanType": "PPO",
        "DedInInd": " $100 ",
        "DedInIndNote": "",
        "DedInFam": " $200 ",
        "DedInFamNote": " (per person) ",
        "DedOutInd": " $7,000 ",
        "DedOutFam": " $14,000 ",
        "DedOutFamNote": " (per person) ",
        "ScriptDed": "Yes",
        "ScriptDedInd": " $100 ",
        "ScriptDedFam": " $100 ",
        "ScriptDedPP": " (per person) ",
        "OthDedFam": null,
        "OthDedInd": "There are no other deductibles",
        "OOPInInd": " $550 ",
        "OOPInIndNote": "",
        "OOPInFam": " $1,100 ",
        "OOPOutInd": "None",
        "OOPOutFam": "None",
        "NotOOP": "Premiums, co-pay, co-insurance and health care this plan doesn't cover",
        "AnnualLimit": "No",
        "NetworkProviders": "Yes",
        "Referral": "No",
        "NotCovered": "Yes",
        "Tier1": "$5 ",
        "Tier1Type": "co-pay",
        "Tier1Note": null,
        "Tier2": "$35 ",
        "Tier2Type": "co-pay",
        "Tier2Note": null,
        "Tier3": "20%",
        "Tier3Type": "co-insurance",
        "Tier3Note": "(with a $75 copay min)",
        "Tier4": "30%",
        "Tier4Type": "co-insurance",
        "Tier4Note": "(with a $250 copay min)",
        "SBCURL": "/unitedHealthcare-silver-compass-plus-100-2.pdf",
        "PlanURL": "/silver-100-2.html",
        "HSA": "No"
    }, 
{
        "PlanName": "Silver Compass Plus 0",
        "MetallicLevel": "Silver",
        "PlanNameShort": "Silver 0",
        "PlanType": "PPO",
        "DedInInd": " $0",
        "DedInIndNote": "",
        "DedInFam": " $0 ",
        "DedInFamNote": " (per person) ",
        "DedOutInd": " $0 ",
        "DedOutFam": " $0 ",
        "DedOutFamNote": " (per person) ",
        "ScriptDed": "Yes",
        "ScriptDedInd": " $0 ",
        "ScriptDedFam": " $0 ",
        "ScriptDedPP": " (per person) ",
        "OthDedFam": null,
        "OthDedInd": "There are no other deductibles",
        "OOPInInd": " $0 ",
        "OOPInIndNote": "",
        "OOPInFam": " $0 ",
        "OOPOutInd": "None",
        "OOPOutFam": "None",
        "NotOOP": "Premiums, co-pay, co-insurance and health care this plan doesn't cover",
        "AnnualLimit": "No",
        "NetworkProviders": "Yes",
        "Referral": "No",
        "NotCovered": "Yes",
        "Tier1": "$0 ",
        "Tier1Type": "co-pay",
        "Tier1Note": null,
        "Tier2": "$0 ",
        "Tier2Type": "co-pay",
        "Tier2Note": null,
        "Tier3": "0%",
        "Tier3Type": "co-insurance",
        "Tier3Note": "",
        "Tier4": "0%",
        "Tier4Type": "co-insurance",
        "Tier4Note": "",
        "SBCURL": "/unitedHealthcare-silver-compass-plus-0.pdf",
        "PlanURL": "/silver-0.html",
        "HSA": "No"
    },
    {
        "PlanName": "silver Compass Plus 1200",
        "MetallicLevel": "silver",
        "PlanNameShort": "silver 1200",
        "PlanType": "PPO",
        "DedInInd": " $1,200 ",
        "DedInIndNote": "",
        "DedInFam": " $2,400 ",
        "DedInFamNote": " (per person) ",
        "DedOutInd": " $4,000 ",
        "DedOutFam": " $8,000 ",
        "DedOutFamNote": " (per person) ",
        "ScriptDed": "Yes",
        "ScriptDedInd": " $500 ",
        "ScriptDedFam": " $500 ",
        "ScriptDedPP": " (per person) ",
        "OthDedFam": null,
        "OthDedInd": "There are no other deductibles",
        "OOPInInd": " $5,200 ",
        "OOPInIndNote": "",
        "OOPInFam": " $10,400 ",
        "OOPOutInd": "None",
        "OOPOutFam": "None",
        "NotOOP": "Premiums, co-pay, co-insurance and health care this plan doesn't cover",
        "AnnualLimit": "No",
        "NetworkProviders": "Yes",
        "Referral": "No",
        "NotCovered": "Yes",
        "Tier1": "$10 ",
        "Tier1Type": "co-pay",
        "Tier1Note": null,
        "Tier2": "$50 ",
        "Tier2Type": "co-pay",
        "Tier2Note": null,
        "Tier3": "20%",
        "Tier3Type": "co-insurance",
        "Tier3Note": "(with a $90 copay min)",
        "Tier4": "30%",
        "Tier4Type": "co-insurance",
        "Tier4Note": "(with a $250 copay min)",
        "SBCURL": "/unitedHealthcare-silver-compass-plus-1200.pdf",
        "PlanURL": "/silver-1200.html",
        "HSA": "No"
    }, {
        "PlanName": "silver Compass Plus 2000",
        "MetallicLevel": "silver",
        "PlanNameShort": "silver 2000",
        "PlanType": "PPO",
        "DedInInd": " $2,000 ",
        "DedInIndNote": "",
        "DedInFam": " $4,000 ",
        "DedInFamNote": " (per person) ",
        "DedOutInd": " $4,000 ",
        "DedOutFam": " $8,000 ",
        "DedOutFamNote": " (per person) ",
        "ScriptDed": "Yes",
        "ScriptDedInd": " $500 ",
        "ScriptDedFam": " $500 ",
        "ScriptDedPP": " (per person) ",
        "OthDedFam": null,
        "OthDedInd": "There are no other deductibles",
        "OOPInInd": " $6,600 ",
        "OOPInIndNote": "",
        "OOPInFam": " $13,200 ",
        "OOPOutInd": "None",
        "OOPOutFam": "None",
        "NotOOP": "Premiums, co-pay, co-insurance and health care this plan doesn't cover",
        "AnnualLimit": "No",
        "NetworkProviders": "Yes",
        "Referral": "No",
        "NotCovered": "Yes",
        "Tier1": "$10 ",
        "Tier1Type": "co-pay",
        "Tier1Note": null,
        "Tier2": "$50 ",
        "Tier2Type": "co-pay",
        "Tier2Note": null,
        "Tier3": "20%",
        "Tier3Type": "co-insurance",
        "Tier3Note": "(with a $90 copay min)",
        "Tier4": "30%",
        "Tier4Type": "co-insurance",
        "Tier4Note": "(with a $250 copay min)",
        "SBCURL": "/unitedHealthcare-silver-compass-plus-2000.pdf",
        "PlanURL": "/silver-2000.html",
        "HSA": "No"
    }, {
        "PlanName": "silver Compass Plus 250-1",
        "MetallicLevel": "silver",
        "PlanNameShort": "silver  250-1",
        "PlanType": "PPO",
        "DedInInd": " $250 ",
        "DedInIndNote": "",
        "DedInFam": " $500 ",
        "DedInFamNote": "",
        "DedOutInd": " $4,000 ",
        "DedOutFam": " $8,000 ",
        "DedOutFamNote": " (per person) ",
        "ScriptDed": "Yes",
        "ScriptDedInd": " $250 ",
        "ScriptDedFam": " $250 ",
        "ScriptDedPP": " (per person) ",
        "OthDedFam": null,
        "OthDedInd": "There are no other deductibles",
        "OOPInInd": " $2,250 ",
        "OOPInIndNote": "",
        "OOPInFam": " $4,500 ",
        "OOPOutInd": "None",
        "OOPOutFam": "None",
        "NotOOP": "Premiums, co-pay, co-insurance and health care this plan doesn't cover",
        "AnnualLimit": "No",
        "NetworkProviders": "Yes",
        "Referral": "No",
        "NotCovered": "Yes",
        "Tier1": "$5 ",
        "Tier1Type": "co-pay",
        "Tier1Note": null,
        "Tier2": "$40 ",
        "Tier2Type": "co-pay",
        "Tier2Note": null,
        "Tier3": "20%",
        "Tier3Type": "co-insurance",
        "Tier3Note": "(with a $80 copay min)",
        "Tier4": "30%",
        "Tier4Type": "co-insurance",
        "Tier4Note": "(with a $250 copay min)",
        "SBCURL": "/unitedHealthcare-silver-compass-plus-250-1.pdf",
        "PlanURL": "/silver-250-1.html",
        "HSA": "No"
    }, {
        "PlanName": "silver Compass Plus 250-2",
        "MetallicLevel": "silver",
        "PlanNameShort": "silver 250-2",
        "PlanType": "PPO",
        "DedInInd": " $250 ",
        "DedInIndNote": "",
        "DedInFam": " $500 ",
        "DedInFamNote": "",
        "DedOutInd": " $7,000 ",
        "DedOutFam": " $14,000 ",
        "DedOutFamNote": " (per person) ",
        "ScriptDed": "Yes",
        "ScriptDedInd": " $250 ",
        "ScriptDedFam": " $250 ",
        "ScriptDedPP": " (per person) ",
        "OthDedFam": null,
        "OthDedInd": "There are no other deductibles",
        "OOPInInd": " $2,250 ",
        "OOPInIndNote": "",
        "OOPInFam": " $4,500 ",
        "OOPOutInd": "None",
        "OOPOutFam": "None",
        "NotOOP": "Premiums, co-pay, co-insurance and health care this plan doesn't cover",
        "AnnualLimit": "No",
        "NetworkProviders": "Yes",
        "Referral": "No",
        "NotCovered": "Yes",
        "Tier1": "$5 ",
        "Tier1Type": "co-pay",
        "Tier1Note": null,
        "Tier2": "$40 ",
        "Tier2Type": "co-pay",
        "Tier2Note": null,
        "Tier3": "20%",
        "Tier3Type": "co-insurance",
        "Tier3Note": "(with a $80 copay min)",
        "Tier4": "30%",
        "Tier4Type": "co-insurance",
        "Tier4Note": "(with a $250 copay min)",
        "SBCURL": "/unitedHealthcare-silver-compass-plus-250-2.pdf",
        "PlanURL": "/silver-250-2.html",
        "HSA": "No"
    }, {
        "PlanName": "silver Compass Plus 2500",
        "MetallicLevel": "silver",
        "PlanNameShort": "silver 2500",
        "PlanType": "PPO",
        "DedInInd": " $2,500 ",
        "DedInIndNote": "",
        "DedInFam": " $5,000 ",
        "DedInFamNote": "",
        "DedOutInd": " $7,000 ",
        "DedOutFam": " $14,000 ",
        "DedOutFamNote": " (per person) ",
        "ScriptDed": "Yes",
        "ScriptDedInd": " $500 ",
        "ScriptDedFam": " $500 ",
        "ScriptDedPP": " (per person) ",
        "OthDedFam": null,
        "OthDedInd": "There are no other deductibles",
        "OOPInInd": " $5,200 ",
        "OOPInIndNote": "",
        "OOPInFam": " $10,400 ",
        "OOPOutInd": "None",
        "OOPOutFam": "None",
        "NotOOP": "Premiums, co-pay, co-insurance and health care this plan doesn't cover",
        "AnnualLimit": "No",
        "NetworkProviders": "Yes",
        "Referral": "No",
        "NotCovered": "Yes",
        "Tier1": "$5 ",
        "Tier1Type": "co-pay",
        "Tier1Note": null,
        "Tier2": "$40 ",
        "Tier2Type": "co-pay",
        "Tier2Note": null,
        "Tier3": "20%",
        "Tier3Type": "co-insurance",
        "Tier3Note": "(with a $80 copay min)",
        "Tier4": "30%",
        "Tier4Type": "co-insurance",
        "Tier4Note": "(with a $250 copay min)",
        "SBCURL": "/unitedHealthcare-silver-compass-plus-2500.pdf",
        "PlanURL": "/silver-2500.html",
        "HSA": "No"
    }, {
        "PlanName": "silver Compass Plus 3500",
        "MetallicLevel": "silver",
        "PlanNameShort": "silver 3500",
        "PlanType": "PPO",
        "DedInInd": " $3,500 ",
        "DedInIndNote": "",
        "DedInFam": " $7,000 ",
        "DedInFamNote": "",
        "DedOutInd": " $7,000 ",
        "DedOutFam": " $14,000 ",
        "DedOutFamNote": " (per person) ",
        "ScriptDed": "Yes",
        "ScriptDedInd": " $1,000 ",
        "ScriptDedFam": " $1,000 ",
        "ScriptDedPP": " (per person) ",
        "OthDedFam": null,
        "OthDedInd": "There are no other deductibles",
        "OOPInInd": " $6,600 ",
        "OOPInIndNote": "",
        "OOPInFam": " $13,200 ",
        "OOPOutInd": "None",
        "OOPOutFam": "None",
        "NotOOP": "Premiums, co-pay, co-insurance and health care this plan doesn't cover",
        "AnnualLimit": "No",
        "NetworkProviders": "Yes",
        "Referral": "No",
        "NotCovered": "Yes",
        "Tier1": "$5 ",
        "Tier1Type": "co-pay",
        "Tier1Note": null,
        "Tier2": "$45 ",
        "Tier2Type": "co-pay",
        "Tier2Note": null,
        "Tier3": "20%",
        "Tier3Type": "co-insurance",
        "Tier3Note": "(with a $85 copay min)",
        "Tier4": "30%",
        "Tier4Type": "co-insurance",
        "Tier4Note": "(with a $250 copay min)",
        "SBCURL": "/unitedHealthcare-silver-compass-plus-3500.pdf",
        "PlanURL": "/silver-3500.html",
        "HSA": "No"
    }, {
        "PlanName": "silver Compass Plus HSA 1100",
        "MetallicLevel": "silver",
        "PlanNameShort": "silver HSA 1100",
        "PlanType": "PPO",
        "DedInInd": "$1,100 ",
        "DedInIndNote": "(Doesn't apply if policy includes 2+ people)",
        "DedInFam": " $2,200 ",
        "DedInFamNote": "",
        "DedOutInd": " $3,200 ",
        "DedOutFam": " $6,400 ",
        "DedOutFamNote": "  (per person)  ",
        "ScriptDed": "No",
        "ScriptDedInd": " None ",
        "ScriptDedFam": " None ",
        "ScriptDedPP": "",
        "OthDedFam": null,
        "OthDedInd": "",
        "OOPInInd": "$5,200 ",
        "OOPInIndNote": "(Doesn't apply if policy includes 2+ people)",
        "OOPInFam": " $10,400 ",
        "OOPOutInd": "None",
        "OOPOutFam": "None",
        "NotOOP": "Premiums, co-pay, co-insurance and health care this plan doesn't cover",
        "AnnualLimit": "No",
        "NetworkProviders": "Yes",
        "Referral": "No",
        "NotCovered": "Yes",
        "Tier1": "$10 ",
        "Tier1Type": "co-pay",
        "Tier1Note": null,
        "Tier2": "$50 ",
        "Tier2Type": "co-pay",
        "Tier2Note": null,
        "Tier3": "20%",
        "Tier3Type": "co-insurance",
        "Tier3Note": "(with a $90 copay min)",
        "Tier4": "30%",
        "Tier4Type": "co-insurance",
        "Tier4Note": "(with a $250 copay min)",
        "SBCURL": "/unitedHealthcare-silver-compass-plus-HSA-1100.pdf",
        "PlanURL": "/silver-HSA-1100.html",
        "HSA": "Yes"
    }, {
        "PlanName": "silver Compass Plus HSA 150-1",
        "MetallicLevel": "silver",
        "PlanNameShort": "silver HSA 150-1",
        "PlanType": "PPO",
        "DedInInd": "$150 ",
        "DedInIndNote": "(Doesn't apply if policy includes 2+ people)",
        "DedInFam": " $300 ",
        "DedInFamNote": "",
        "DedOutInd": " $3,200 ",
        "DedOutFam": " $6,400 ",
        "DedOutFamNote": "  (per person)  ",
        "ScriptDed": "No",
        "ScriptDedInd": " None ",
        "ScriptDedFam": " None ",
        "ScriptDedPP": "",
        "OthDedFam": null,
        "OthDedInd": "",
        "OOPInInd": "$2,500 ",
        "OOPInIndNote": "(Doesn't apply if policy includes 2+ people)",
        "OOPInFam": " $4,500 ",
        "OOPOutInd": "None",
        "OOPOutFam": "None",
        "NotOOP": "Premiums, co-pay, co-insurance and health care this plan doesn't cover",
        "AnnualLimit": "No",
        "NetworkProviders": "Yes",
        "Referral": "No",
        "NotCovered": "Yes",
        "Tier1": "$5 ",
        "Tier1Type": "co-pay",
        "Tier1Note": null,
        "Tier2": "$40 ",
        "Tier2Type": "co-pay",
        "Tier2Note": null,
        "Tier3": "20%",
        "Tier3Type": "co-insurance",
        "Tier3Note": "(with a $80 copay min)",
        "Tier4": "30%",
        "Tier4Type": "co-insurance",
        "Tier4Note": "(with a $250 copay min)",
        "SBCURL": "/unitedHealthcare-silver-compass-plus-HSA-150-1.pdf",
        "PlanURL": "/silver-HSA-150-1.html",
        "HSA": "Yes"
    }, {
        "PlanName": "silver Compass Plus HSA 150-2",
        "MetallicLevel": "silver",
        "PlanNameShort": "silver HSA 150-2",
        "PlanType": "PPO",
        "DedInInd": "$150 ",
        "DedInIndNote": "(Doesn't apply if policy includes 2+ people)",
        "DedInFam": " $300 ",
        "DedInFamNote": "",
        "DedOutInd": " $3,200 ",
        "DedOutFam": " $6,400 ",
        "DedOutFamNote": "  (per person)  ",
        "ScriptDed": "No",
        "ScriptDedInd": " None ",
        "ScriptDedFam": " None ",
        "ScriptDedPP": "",
        "OthDedFam": null,
        "OthDedInd": "",
        "OOPInInd": "$700 ",
        "OOPInIndNote": "(Doesn't apply if policy includes 2+ people)",
        "OOPInFam": " $1,400 ",
        "OOPOutInd": "None",
        "OOPOutFam": "None",
        "NotOOP": "Premiums, co-pay, co-insurance and health care this plan doesn't cover",
        "AnnualLimit": "No",
        "NetworkProviders": "Yes",
        "Referral": "No",
        "NotCovered": "Yes",
        "Tier1": "$5 ",
        "Tier1Type": "co-pay",
        "Tier1Note": null,
        "Tier2": "$35 ",
        "Tier2Type": "co-pay",
        "Tier2Note": null,
        "Tier3": "20%",
        "Tier3Type": "co-insurance",
        "Tier3Note": "(with a $75 copay min)",
        "Tier4": "30%",
        "Tier4Type": "co-insurance",
        "Tier4Note": "(with a $250 copay min)",
        "SBCURL": "/unitedHealthcare-silver-compass-plus-HSA-150-2.pdf",
        "PlanURL": "/silver-HSA-150-2.html",
        "HSA": "Yes"
    }, {
        "PlanName": "silver Compass Plus HSA 1600",
        "MetallicLevel": "silver",
        "PlanNameShort": "silver HSA 1600",
        "PlanType": "PPO",
        "DedInInd": "$1,600 ",
        "DedInIndNote": "(Doesn't apply if policy includes 2+ people)",
        "DedInFam": " $3,200 ",
        "DedInFamNote": "",
        "DedOutInd": " $3,200 ",
        "DedOutFam": " $6,400 ",
        "DedOutFamNote": "  (per person)  ",
        "ScriptDed": "No",
        "ScriptDedInd": " None ",
        "ScriptDedFam": " None ",
        "ScriptDedPP": "",
        "OthDedFam": null,
        "OthDedInd": "",
        "OOPInInd": "$6,450 ",
        "OOPInIndNote": "(Doesn't apply if policy includes 2+ people)",
        "OOPInFam": " $12,900 ",
        "OOPOutInd": "None",
        "OOPOutFam": "None",
        "NotOOP": "Premiums, co-pay, co-insurance and health care this plan doesn't cover",
        "AnnualLimit": "No",
        "NetworkProviders": "Yes",
        "Referral": "No",
        "NotCovered": "Yes",
        "Tier1": "$10 ",
        "Tier1Type": "co-pay",
        "Tier1Note": null,
        "Tier2": "$50 ",
        "Tier2Type": "co-pay",
        "Tier2Note": null,
        "Tier3": "20%",
        "Tier3Type": "co-insurance",
        "Tier3Note": "(with a $90 copay min)",
        "Tier4": "30%",
        "Tier4Type": "co-insurance",
        "Tier4Note": "(with a $250 copay min)",
        "SBCURL": "/unitedHealthcare-silver-compass-plus-HSA-1600.pdf",
        "PlanURL": "/silver-HSA-1600.html",
        "HSA": "Yes"
    }, {
        "PlanName": "silver Compass Plus HSA 1900",
        "MetallicLevel": "silver",
        "PlanNameShort": "silver HSA 1900",
        "PlanType": "PPO",
        "DedInInd": "$1,900 ",
        "DedInIndNote": "(Doesn't apply if policy includes 2+ people)",
        "DedInFam": " $3,800 ",
        "DedInFamNote": "",
        "DedOutInd": " $5,200 ",
        "DedOutFam": " $10,400 ",
        "DedOutFamNote": "  (per person)  ",
        "ScriptDed": "No",
        "ScriptDedInd": " None ",
        "ScriptDedFam": " None ",
        "ScriptDedPP": "",
        "OthDedFam": null,
        "OthDedInd": "",
        "OOPInInd": "$5,200 ",
        "OOPInIndNote": "(Doesn't apply if policy includes 2+ people)",
        "OOPInFam": " $10,400 ",
        "OOPOutInd": "None",
        "OOPOutFam": "None",
        "NotOOP": "Premiums, co-pay, co-insurance and health care this plan doesn't cover",
        "AnnualLimit": "No",
        "NetworkProviders": "Yes",
        "Referral": "No",
        "NotCovered": "Yes",
        "Tier1": "$5 ",
        "Tier1Type": "co-pay",
        "Tier1Note": null,
        "Tier2": "$40 ",
        "Tier2Type": "co-pay",
        "Tier2Note": null,
        "Tier3": "20%",
        "Tier3Type": "co-insurance",
        "Tier3Note": "(with a $80 copay min)",
        "Tier4": "30%",
        "Tier4Type": "co-insurance",
        "Tier4Note": "(with a $250 copay min)",
        "SBCURL": "/unitedHealthcare-silver-compass-plus-HSA-1900.pdf",
        "PlanURL": "/silver-HSA-1900.html",
        "HSA": "Yes"
    }, {
        "PlanName": "silver Compass Plus HSA 2600",
        "MetallicLevel": "silver",
        "PlanNameShort": "silver HSA 2600",
        "PlanType": "PPO",
        "DedInInd": "$2,600 ",
        "DedInIndNote": "(Doesn't apply if policy includes 2+ people)",
        "DedInFam": " $5,200 ",
        "DedInFamNote": "",
        "DedOutInd": " $5,200 ",
        "DedOutFam": " $10,400 ",
        "DedOutFamNote": "  (per person)  ",
        "ScriptDed": "No",
        "ScriptDedInd": " None ",
        "ScriptDedFam": " None ",
        "ScriptDedPP": "",
        "OthDedFam": null,
        "OthDedInd": "",
        "OOPInInd": "$6,450 ",
        "OOPInIndNote": "(Doesn't apply if policy includes 2+ people)",
        "OOPInFam": " $12,900 ",
        "OOPOutInd": "None",
        "OOPOutFam": "None",
        "NotOOP": "Premiums, co-pay, co-insurance and health care this plan doesn't cover",
        "AnnualLimit": "No",
        "NetworkProviders": "Yes",
        "Referral": "No",
        "NotCovered": "Yes",
        "Tier1": "$5 ",
        "Tier1Type": "co-pay",
        "Tier1Note": null,
        "Tier2": "$40 ",
        "Tier2Type": "co-pay",
        "Tier2Note": null,
        "Tier3": "20%",
        "Tier3Type": "co-insurance",
        "Tier3Note": "(with a $80 copay min)",
        "Tier4": "30%",
        "Tier4Type": "co-insurance",
        "Tier4Note": "(with a $250 copay min)",
        "SBCURL": "/unitedHealthcare-silver-compass-plus-HSA-2600.pdf",
        "PlanURL": "/silver-HSA-2600.html",
        "HSA": "Yes"
    }, {
        "PlanName": "silver Compass Plus HSA 550",
        "MetallicLevel": "silver",
        "PlanNameShort": "silver HSA 550",
        "PlanType": "PPO",
        "DedInInd": "$550 ",
        "DedInIndNote": "(Doesn't apply if policy includes 2+ people)",
        "DedInFam": " $1,100 ",
        "DedInFamNote": "",
        "DedOutInd": " $5,200 ",
        "DedOutFam": " $10,400 ",
        "DedOutFamNote": "  (per person)  ",
        "ScriptDed": "No",
        "ScriptDedInd": " None ",
        "ScriptDedFam": " None ",
        "ScriptDedPP": "",
        "OthDedFam": null,
        "OthDedInd": "",
        "OOPInInd": "$2,250 ",
        "OOPInIndNote": "(Doesn't apply if policy includes 2+ people)",
        "OOPInFam": " $4,500 ",
        "OOPOutInd": "None",
        "OOPOutFam": "None",
        "NotOOP": "Premiums, co-pay, co-insurance and health care this plan doesn't cover",
        "AnnualLimit": "No",
        "NetworkProviders": "Yes",
        "Referral": "No",
        "NotCovered": "Yes",
        "Tier1": "$5 ",
        "Tier1Type": "co-pay",
        "Tier1Note": null,
        "Tier2": "$35 ",
        "Tier2Type": "co-pay",
        "Tier2Note": null,
        "Tier3": "20%",
        "Tier3Type": "co-insurance",
        "Tier3Note": "(with a $75 copay min)",
        "Tier4": "30%",
        "Tier4Type": "co-insurance",
        "Tier4Note": "(with a $250 copay min)",
        "SBCURL": "/unitedHealthcare-silver-compass-plus-HSA-550.pdf",
        "PlanURL": "/silver-HSA-550.html",
        "HSA": "Yes"
    }, {
        "PlanName": "silver Compass Plus HSA 75",
        "MetallicLevel": "silver",
        "PlanNameShort": "silver HSA 75",
        "PlanType": "PPO",
        "DedInInd": "$75 ",
        "DedInIndNote": "(Doesn't apply if policy includes 2+ people)",
        "DedInFam": " $150 ",
        "DedInFamNote": "",
        "DedOutInd": " $5,200 ",
        "DedOutFam": " $10,400 ",
        "DedOutFamNote": "  (per person)  ",
        "ScriptDed": "No",
        "ScriptDedInd": " None ",
        "ScriptDedFam": " None ",
        "ScriptDedPP": "",
        "OthDedFam": null,
        "OthDedInd": "",
        "OOPInInd": "$1,000 ",
        "OOPInIndNote": "(Doesn't apply if policy includes 2+ people)",
        "OOPInFam": " $2,000 ",
        "OOPOutInd": "None",
        "OOPOutFam": "None",
        "NotOOP": "Premiums, co-pay, co-insurance and health care this plan doesn't cover",
        "AnnualLimit": "No",
        "NetworkProviders": "Yes",
        "Referral": "No",
        "NotCovered": "Yes",
        "Tier1": "$5 ",
        "Tier1Type": "co-pay",
        "Tier1Note": null,
        "Tier2": "$35 ",
        "Tier2Type": "co-pay",
        "Tier2Note": null,
        "Tier3": "20%",
        "Tier3Type": "co-insurance",
        "Tier3Note": "(with a $75 copay min)",
        "Tier4": "30%",
        "Tier4Type": "co-insurance",
        "Tier4Note": "(with a $250 copay min)",
        "SBCURL": "/unitedHealthcare-silver-compass-plus-HSA-75.pdf",
        "PlanURL": "/silver-HSA-75.html",
        "HSA": "Yes"
    }, {
        "PlanName": "Bronze Compass Plus 5500",
        "MetallicLevel": "Bronze",
        "PlanNameShort": "Bronze 5500",
        "PlanType": "PPO",
        "DedInInd": " $5,500 ",
        "DedInIndNote": "",
        "DedInFam": " $11,000 ",
        "DedInFamNote": "",
        "DedOutInd": " $11,000 ",
        "DedOutFam": " $22,000 ",
        "DedOutFamNote": "  (per person)  ",
        "ScriptDed": " No ",
        "ScriptDedInd": " None ",
        "ScriptDedFam": " None ",
        "ScriptDedPP": "",
        "OthDedFam": null,
        "OthDedInd": "",
        "OOPInInd": " $6,600 ",
        "OOPInIndNote": "",
        "OOPInFam": " $13,200 ",
        "OOPOutInd": "None",
        "OOPOutFam": "None",
        "NotOOP": "Premiums, co-pay, co-insurance and health care this plan doesn't cover",
        "AnnualLimit": "No",
        "NetworkProviders": "Yes",
        "Referral": "No",
        "NotCovered": "Yes",
        "Tier1": "$10 ",
        "Tier1Type": "co-pay",
        "Tier1Note": null,
        "Tier2": "$50 ",
        "Tier2Type": "co-pay",
        "Tier2Note": null,
        "Tier3": "20%",
        "Tier3Type": "co-insurance",
        "Tier3Note": "(with a $90 copay min)",
        "Tier4": "30%",
        "Tier4Type": "co-insurance",
        "Tier4Note": "(with a $250 copay min)",
        "SBCURL": "/unitedHealthcare-bronze-compass-plus-5500.pdf",
        "PlanURL": "/bronze-5500.html",
        "HSA": "No"
    },
{
        "PlanName": "Bronze Compass Plus 0",
        "MetallicLevel": "Bronze",
        "PlanNameShort": "Bronze 0",
        "PlanType": "PPO",
        "DedInInd": " $0",
        "DedInIndNote": "",
        "DedInFam": " $0 ",
        "DedInFamNote": " (per person) ",
        "DedOutInd": " $0 ",
        "DedOutFam": " $0 ",
        "DedOutFamNote": " (per person) ",
        "ScriptDed": "Yes",
        "ScriptDedInd": " $0 ",
        "ScriptDedFam": " $0 ",
        "ScriptDedPP": " (per person) ",
        "OthDedFam": null,
        "OthDedInd": "There are no other deductibles",
        "OOPInInd": " $0 ",
        "OOPInIndNote": "",
        "OOPInFam": " $0 ",
        "OOPOutInd": "None",
        "OOPOutFam": "None",
        "NotOOP": "Premiums, co-pay, co-insurance and health care this plan doesn't cover",
        "AnnualLimit": "No",
        "NetworkProviders": "Yes",
        "Referral": "No",
        "NotCovered": "Yes",
        "Tier1": "$0 ",
        "Tier1Type": "co-pay",
        "Tier1Note": null,
        "Tier2": "$0 ",
        "Tier2Type": "co-pay",
        "Tier2Note": null,
        "Tier3": "0%",
        "Tier3Type": "co-insurance",
        "Tier3Note": "",
        "Tier4": "0%",
        "Tier4Type": "co-insurance",
        "Tier4Note": "",
        "SBCURL": "/unitedHealthcare-bronze-compass-plus-0.pdf",
        "PlanURL": "/bronze-0.html",
        "HSA": "No"
    },
     {
        "PlanName": "Bronze Compass Plus HSA 4900",
        "MetallicLevel": "Bronze",
        "PlanNameShort": "Bronze HSA 4900",
        "PlanType": "PPO",
        "DedInInd": "$4,900 ",
        "DedInIndNote": "(Doesn't apply if policy includes 2+ people)",
        "DedInFam": " $9,800 ",
        "DedInFamNote": "",
        "DedOutInd": " $9,800 ",
        "DedOutFam": " $19,600 ",
        "DedOutFamNote": "  (per person)  ",
        "ScriptDed": " No ",
        "ScriptDedInd": " None ",
        "ScriptDedFam": " None ",
        "ScriptDedPP": "",
        "OthDedFam": null,
        "OthDedInd": "",
        "OOPInInd": "$6,450 ",
        "OOPInIndNote": "(Doesn't apply if policy includes 2+ people)",
        "OOPInFam": " $12,900 ",
        "OOPOutInd": "None",
        "OOPOutFam": "None",
        "NotOOP": "Premiums, co-pay, co-insurance and health care this plan doesn't cover",
        "AnnualLimit": "No",
        "NetworkProviders": "Yes",
        "Referral": "No",
        "NotCovered": "Yes",
        "Tier1": "$10 ",
        "Tier1Type": "co-pay",
        "Tier1Note": null,
        "Tier2": "$50 ",
        "Tier2Type": "co-pay",
        "Tier2Note": null,
        "Tier3": "20%",
        "Tier3Type": "co-insurance",
        "Tier3Note": "(with a $90 copay min)",
        "Tier4": "30%",
        "Tier4Type": "co-insurance",
        "Tier4Note": "(with a $250 copay min)",
        "SBCURL": "/unitedHealthcare-bronze-compass-plus-HSA-4900.pdf",
        "PlanURL": "/bronze-HSA-4900.html",
        "HSA": "Yes"
    }, {
        "PlanName": "Catastophic Compass Plus 6600",
        "MetallicLevel": "catastrophic",
        "PlanNameShort": "Catastophic 6600",
        "PlanType": "PPO",
        "DedInInd": " $6,600 ",
        "DedInIndNote": "",
        "DedInFam": " $13,200 ",
        "DedInFamNote": "",
        "DedOutInd": " $13,200 ",
        "DedOutFam": " $26,400 ",
        "DedOutFamNote": "",
        "ScriptDed": "No",
        "ScriptDedInd": " None ",
        "ScriptDedFam": " None ",
        "ScriptDedPP": "",
        "OthDedFam": null,
        "OthDedInd": "",
        "OOPInInd": " $6,600 ",
        "OOPInIndNote": "",
        "OOPInFam": " $13,200 ",
        "OOPOutInd": "None",
        "OOPOutFam": "None",
        "NotOOP": "Premiums, balance-billed charges, health care this plan doesn't cover and penalties for failure to obtain prior authorization or a referral as required. ",
        "AnnualLimit": "No",
        "NetworkProviders": "Yes",
        "Referral": "No",
        "NotCovered": "Yes",
        "Tier1": "0%",
        "Tier1Type": "co-insurance",
        "Tier1Note": "(after the deductible)",
        "Tier2": "0%",
        "Tier2Type": "co-insurance",
        "Tier2Note": "(after the deductible)",
        "Tier3": "0%",
        "Tier3Type": "co-insurance",
        "Tier3Note": "(after the deductible)",
        "Tier4": "0%",
        "Tier4Type": "co-insurance",
        "Tier4Note": "(after the deductible)",
        "SBCURL": "/unitedHealthcare-catastrophic-compass-plus-6600.pdf",
        "PlanURL": "/catastrophic-6600.html",
        "HSA": "No"
    }]
}